<?xml version="1.0" encoding="UTF-8" standalone="no"?>
<svg xmlns:dc="http://purl.org/dc/elements/1.1/" xmlns:cc="http://creativecommons.org/ns#" xmlns:rdf="http://www.w3.org/1999/02/22-rdf-syntax-ns#" xmlns:svg="http://www.w3.org/2000/svg" xmlns="http://www.w3.org/2000/svg" xmlns:sodipodi="http://sodipodi.sourceforge.net/DTD/sodipodi-0.dtd" xmlns:inkscape="http://www.inkscape.org/namespaces/inkscape" width="1020" height="1020" viewBox="-510 -510 1020 1020" version="1.1" id="svg40" sodipodi:docname="18b-anno.svg" inkscape:version="0.92.2 (5c3e80d, 2017-08-06)">
  <metadata id="metadata46">
    <rdf:RDF>
      <cc:Work rdf:about="">
        <dc:format>image/svg+xml</dc:format>
        <dc:type rdf:resource="http://purl.org/dc/dcmitype/StillImage" />
        <dc:title></dc:title>
      </cc:Work>
    </rdf:RDF>
  </metadata>
  <defs id="defs44" />
  <sodipodi:namedview pagecolor="#ffffff" bordercolor="#666666" borderopacity="1" objecttolerance="10" gridtolerance="10" guidetolerance="10" inkscape:pageopacity="0" inkscape:pageshadow="2" inkscape:window-width="1853" inkscape:window-height="1025" id="namedview42" showgrid="false" inkscape:snap-center="true" inkscape:snap-intersection-paths="true" inkscape:zoom="0.59618807" inkscape:cx="510" inkscape:cy="510" inkscape:window-x="67" inkscape:window-y="27" inkscape:window-maximized="1" inkscape:current-layer="svg40" />
  <circle r="500" fill="none" stroke="#c0c0c0" stroke-width="4" id="circle2" style="stroke:#d7d7d7" />
  <circle cx="-370.28319287" cy="0" r="145.08385882" fill="none" stroke="#000" stroke-width="4" id="circle4" style="stroke:#d7d7d7" />
  <circle cx="-101.24768547" cy="0" r="145.08385882" fill="none" stroke="#000" stroke-width="4" id="circle6" style="stroke:#d7d7d7" />
  <circle cx="172.58432751" cy="0" r="145.08385882" fill="none" stroke="#000" stroke-width="4" id="circle8" style="stroke:#d7d7d7" />
  <circle cx="432.44958346" cy="0" r="145.08385882" fill="none" stroke="#000" stroke-width="4" id="circle10" style="stroke:#d7d7d7" />
  <circle cx="351.00588145" cy="-201.29223113" r="145.08385882" fill="none" stroke="#000" stroke-width="4" id="circle12" style="stroke:#d7d7d7" />
  <circle cx="351.00588145" cy="201.29223113" r="145.08385882" fill="none" stroke="#000" stroke-width="4" id="circle14" style="stroke:#d7d7d7" />
  <circle cx="84.157246983" cy="-184.73423367" r="145.08385882" fill="none" stroke="#000" stroke-width="4" id="circle16" style="stroke:#d7d7d7" />
  <circle cx="84.157246983" cy="184.73423367" r="145.08385882" fill="none" stroke="#000" stroke-width="4" id="circle18" style="stroke:#d7d7d7" />
  <circle cx="223.99684153" cy="-394.03050328" r="145.08385882" fill="none" stroke="#000" stroke-width="4" id="circle20" style="stroke:#d7d7d7" />
  <circle cx="223.99684153" cy="394.03050328" r="145.08385882" fill="none" stroke="#000" stroke-width="4" id="circle22" style="stroke:#d7d7d7" />
  <circle cx="-408.26928049" cy="-192.12394362" r="145.08385882" fill="none" stroke="#000" stroke-width="4" id="circle24" style="stroke:#d7d7d7" />
  <circle cx="-408.26928049" cy="192.12394362" r="145.08385882" fill="none" stroke="#000" stroke-width="4" id="circle26" style="stroke:#d7d7d7" />
  <circle cx="-149.7369445" cy="-171.17994346" r="145.08385882" fill="none" stroke="#000" stroke-width="4" id="circle28" style="stroke:#d7d7d7" />
  <circle cx="-149.7369445" cy="171.17994346" r="145.08385882" fill="none" stroke="#000" stroke-width="4" id="circle30" style="stroke:#d7d7d7" />
  <circle cx="-238.5678572" cy="-387.23051781" r="145.08385882" fill="none" stroke="#000" stroke-width="4" id="circle32" style="stroke:#d7d7d7" />
  <circle cx="-238.5678572" cy="387.23051781" r="145.08385882" fill="none" stroke="#000" stroke-width="4" id="circle34" style="stroke:#d7d7d7" />
  <circle cx="-7.0185705376" cy="-405.2038154" r="145.08385882" fill="none" stroke="#000" stroke-width="4" id="circle36" style="stroke:#d7d7d7" />
  <circle cx="-7.0185705376" cy="405.2038154" r="145.08385882" fill="none" stroke="#000" stroke-width="4" id="circle38" style="stroke:#d7d7d7" />
  <path id="path73" style="opacity:1;fill:none;fill-opacity:1;fill-rule:evenodd;stroke:#230f38;stroke-width:4;stroke-linecap:butt;stroke-linejoin:round;stroke-miterlimit:20;stroke-dasharray:none;stroke-dashoffset:0;stroke-opacity:1" d="M 214.08663,249.29183 351.00589,201.29224 M 221.07065,136.7421 84.15725,184.73424 M 302.51451,64.54614 351.00589,201.29224 221.07068,136.74209 172.58432,0 m -88.42707,184.73424 129.92937,64.55762 9.91022,144.73866 m -497.76005,-147.55017 124.02627,-75.3004 111.99003,92.23644 30.72834,141.78744 M -37.73836,263.41579 84.15725,184.73424 35.67332,47.97879 m -320.0662,68.9493 134.65594,54.25186 L -235.773,54.37217 M -408.26929,192.12395 -284.25027,116.83377 -370.2832,0 m -37.98609,192.12395 134.51489,54.36058 35.18654,140.746 M -370.2832,0 l -124.01576,75.28966 86.02967,116.83429 35.19485,140.76562 134.50658,54.34096 109.00995,95.6926 122.53934,-77.7193 119.73769,81.92125 L 223.99684,394.03052 360.9014,346.04938 351.00589,201.29224 480.93317,136.75996 432.44958,0 302.52096,64.54298 172.58432,0 35.67331,47.97882 -101.24769,0 -235.773,54.37217 Z m 584.36983,-249.29183 136.91926,47.99959 m -129.93524,64.55014 -136.9134,-47.99214 m 218.35726,120.1881 48.49138,-136.7461 -129.93521,64.55015 L 172.58432,0 m -88.42707,-184.73424 129.92937,-64.55762 9.91022,-144.73866 m -497.76005,147.55017 124.02627,75.3004 111.99003,-92.23644 30.72834,-141.78744 m -30.71979,141.78804 121.89561,78.68155 -48.48393,136.75545 m -320.0662,-68.9493 134.65594,-54.25186 -86.03606,116.80778 m -172.49629,-137.75178 124.01902,75.29018 L -370.2832,0 m -37.98609,-192.12395 134.51489,-54.36058 35.18654,-140.746 M -370.2832,0 l -124.01576,-75.28966 86.02967,-116.83429 35.19485,-140.76562 134.50658,-54.34096 109.00995,-95.6926 122.53934,77.7193 119.73769,-81.92125 111.27772,93.09456 136.90456,47.98114 -9.89551,144.75714 129.92728,64.53228 L 432.44958,0 302.52096,-64.54298 172.58432,0 35.67331,-47.97882 -101.24769,0 -235.773,-54.37217 Z" />
  <path id="path89" style="opacity:1;fill:none;fill-opacity:1;fill-rule:evenodd;stroke:#1c92cd;stroke-width:4;stroke-linecap:butt;stroke-linejoin:round;stroke-miterlimit:20;stroke-dasharray:none;stroke-dashoffset:0;stroke-opacity:1" d="M -370.2832,0 -149.73694,171.17995 -101.24769,0 84.15725,184.73424 172.58432,0 351.00589,201.29224 M 223.99684,394.03052 84.15725,184.73424 l 266.84864,16.558 M -7.01857,405.20383 -149.73694,171.17995 84.15725,184.73424 Z m -401.25072,-213.07988 258.53235,-20.944 -88.83092,216.05058 M -370.2832,0 -149.73694,-171.17995 -101.24769,0 84.15725,-184.73424 172.58432,0 351.00589,-201.29224 m -127.00905,-192.73828 -139.83959,209.29628 266.84864,-16.558 M -7.01857,-405.20383 -149.73694,-171.17995 84.15725,-184.73424 Z m -401.25072,213.07988 258.53235,20.944 -88.83092,-216.05058 M -370.2832,0 h 269.03551 273.83201 259.86526 m -840.71887,-192.12395 169.70143,-195.10658 231.54929,-17.9733 231.01541,11.17331 127.00905,192.73828 L 432.44958,0 351.00589,201.29224 223.99684,394.03052 -7.01857,405.20383 -238.56786,387.23053 -408.26929,192.12395 -370.2832,0 Z" />
</svg>
